^D:\USERS\HIKARU\DOCUMENTS\LUDUS\PROGRAMS\BACHELOR\CPP\TP_FCTS_AMIES_PRODUITS_MATRICES_VECTEURS\PROGRAMMER_EN_CPP\PROGRAMMER_EN_CPP\CCERCLE.CPP
/c /ZI /JMC /nologo /W3 /WX- /diagnostics:column /sdl /Od /D _MBCS /Gm- /EHsc /RTC1 /MDd /GS /fp:precise /permissive- /Zc:wchar_t /Zc:forScope /Zc:inline /Fo"X64\DEBUG\\" /Fd"X64\DEBUG\VC142.PDB" /Gd /TP /FC D:\USERS\HIKARU\DOCUMENTS\LUDUS\PROGRAMS\BACHELOR\CPP\TP_FCTS_AMIES_PRODUITS_MATRICES_VECTEURS\PROGRAMMER_EN_CPP\PROGRAMMER_EN_CPP\CCERCLE.CPP
^D:\USERS\HIKARU\DOCUMENTS\LUDUS\PROGRAMS\BACHELOR\CPP\TP_FCTS_AMIES_PRODUITS_MATRICES_VECTEURS\PROGRAMMER_EN_CPP\PROGRAMMER_EN_CPP\CPOINT.CPP
/c /ZI /JMC /nologo /W3 /WX- /diagnostics:column /sdl /Od /D _MBCS /Gm- /EHsc /RTC1 /MDd /GS /fp:precise /permissive- /Zc:wchar_t /Zc:forScope /Zc:inline /Fo"X64\DEBUG\\" /Fd"X64\DEBUG\VC142.PDB" /Gd /TP /FC D:\USERS\HIKARU\DOCUMENTS\LUDUS\PROGRAMS\BACHELOR\CPP\TP_FCTS_AMIES_PRODUITS_MATRICES_VECTEURS\PROGRAMMER_EN_CPP\PROGRAMMER_EN_CPP\CPOINT.CPP
^D:\USERS\HIKARU\DOCUMENTS\LUDUS\PROGRAMS\BACHELOR\CPP\TP_FCTS_AMIES_PRODUITS_MATRICES_VECTEURS\PROGRAMMER_EN_CPP\PROGRAMMER_EN_CPP\CPOINTCOUL.CPP
/c /ZI /JMC /nologo /W3 /WX- /diagnostics:column /sdl /Od /D _MBCS /Gm- /EHsc /RTC1 /MDd /GS /fp:precise /permissive- /Zc:wchar_t /Zc:forScope /Zc:inline /Fo"X64\DEBUG\\" /Fd"X64\DEBUG\VC142.PDB" /Gd /TP /FC D:\USERS\HIKARU\DOCUMENTS\LUDUS\PROGRAMS\BACHELOR\CPP\TP_FCTS_AMIES_PRODUITS_MATRICES_VECTEURS\PROGRAMMER_EN_CPP\PROGRAMMER_EN_CPP\CPOINTCOUL.CPP
^D:\USERS\HIKARU\DOCUMENTS\LUDUS\PROGRAMS\BACHELOR\CPP\TP_FCTS_AMIES_PRODUITS_MATRICES_VECTEURS\PROGRAMMER_EN_CPP\PROGRAMMER_EN_CPP\MAIN.CPP
/c /ZI /JMC /nologo /W3 /WX- /diagnostics:column /sdl /Od /D _MBCS /Gm- /EHsc /RTC1 /MDd /GS /fp:precise /permissive- /Zc:wchar_t /Zc:forScope /Zc:inline /Fo"X64\DEBUG\\" /Fd"X64\DEBUG\VC142.PDB" /Gd /TP /FC D:\USERS\HIKARU\DOCUMENTS\LUDUS\PROGRAMS\BACHELOR\CPP\TP_FCTS_AMIES_PRODUITS_MATRICES_VECTEURS\PROGRAMMER_EN_CPP\PROGRAMMER_EN_CPP\MAIN.CPP
